{
	"$schema": "https://schemas.wp.org/trunk/block.json",
	"apiVersion": 2,
	"name": "create-block/test-case-conditional-block-loading",
	"version": "0.1.0",
	"title": "Test Case Conditional Block Loading",
	"category": "widgets",
	"icon": "smiley",
	"description": "Example block written with ESNext standard and JSX support – build step required.",
	"supports": {
		"html": false
	},
	"textdomain": "test-case-conditional-block-loading",
	"editorScript": "file:./index.js",
	"editorStyle": "file:./index.css",
	"style": "file:./style-index.css"
}